2015-04-03 09:20:26 DEBUG TestContext:162 - Retrieved ApplicationContext for test class [class com.epam.backend.test.service.NewsServiceTest] from cache with key [[MergedContextConfiguration@431cd9b2 testClass = NewsServiceTest, locations = '{classpath:**/test-config.xml}', classes = '{}', activeProfiles = '{}', contextLoader = 'org.springframework.test.context.support.DelegatingSmartContextLoader']].
2015-04-03 09:20:26 DEBUG InjectionMetadata:85 - Processing injected method of bean 'com.epam.backend.test.service.NewsServiceTest': AutowiredFieldElement for private com.epam.backend.db.dao.INewsDAO com.epam.backend.test.service.NewsServiceTest.dao
2015-04-03 09:20:26 DEBUG DefaultListableBeanFactory:245 - Returning cached instance of singleton bean 'newsDao'
2015-04-03 09:20:26 DEBUG InjectionMetadata:85 - Processing injected method of bean 'com.epam.backend.test.service.NewsServiceTest': AutowiredFieldElement for private com.epam.backend.service.INewsService com.epam.backend.test.service.NewsServiceTest.serv
2015-04-03 09:20:26 DEBUG DefaultListableBeanFactory:245 - Returning cached instance of singleton bean 'newsService'
2015-04-03 09:20:26 DEBUG DirtiesContextTestExecutionListener:86 - After test method: context [[TestContext@72c8e7b testClass = NewsServiceTest, testInstance = com.epam.backend.test.service.NewsServiceTest@387a8303, testMethod = testFetchByAuthorId@NewsServiceTest, testException = [null], mergedContextConfiguration = [MergedContextConfiguration@431cd9b2 testClass = NewsServiceTest, locations = '{classpath:**/test-config.xml}', classes = '{}', activeProfiles = '{}', contextLoader = 'org.springframework.test.context.support.DelegatingSmartContextLoader']]], class dirties context [false], class mode [null], method dirties context [false].
2015-04-03 09:20:26 DEBUG ProfileValueUtils:68 - Retrieved @ProfileValueSourceConfiguration [null] for test class [com.epam.backend.test.service.NewsServiceTest]
2015-04-03 09:20:26 DEBUG ProfileValueUtils:80 - Retrieved ProfileValueSource type [class org.springframework.test.annotation.SystemProfileValueSource] for class [com.epam.backend.test.service.NewsServiceTest]
2015-04-03 09:20:26 DEBUG DependencyInjectionTestExecutionListener:73 - Performing dependency injection for test context [[TestContext@72c8e7b testClass = NewsServiceTest, testInstance = com.epam.backend.test.service.NewsServiceTest@5c7bfdc1, testMethod = [null], testException = [null], mergedContextConfiguration = [MergedContextConfiguration@431cd9b2 testClass = NewsServiceTest, locations = '{classpath:**/test-config.xml}', classes = '{}', activeProfiles = '{}', contextLoader = 'org.springframework.test.context.support.DelegatingSmartContextLoader']]].
2015-04-03 09:20:26 DEBUG TestContext:162 - Retrieved ApplicationContext for test class [class com.epam.backend.test.service.NewsServiceTest] from cache with key [[MergedContextConfiguration@431cd9b2 testClass = NewsServiceTest, locations = '{classpath:**/test-config.xml}', classes = '{}', activeProfiles = '{}', contextLoader = 'org.springframework.test.context.support.DelegatingSmartContextLoader']].
2015-04-03 09:20:26 DEBUG InjectionMetadata:85 - Processing injected method of bean 'com.epam.backend.test.service.NewsServiceTest': AutowiredFieldElement for private com.epam.backend.db.dao.INewsDAO com.epam.backend.test.service.NewsServiceTest.dao
2015-04-03 09:20:26 DEBUG DefaultListableBeanFactory:245 - Returning cached instance of singleton bean 'newsDao'
2015-04-03 09:20:26 DEBUG InjectionMetadata:85 - Processing injected method of bean 'com.epam.backend.test.service.NewsServiceTest': AutowiredFieldElement for private com.epam.backend.service.INewsService com.epam.backend.test.service.NewsServiceTest.serv
2015-04-03 09:20:26 DEBUG DefaultListableBeanFactory:245 - Returning cached instance of singleton bean 'newsService'
2015-04-03 09:20:26 DEBUG DirtiesContextTestExecutionListener:86 - After test method: context [[TestContext@72c8e7b testClass = NewsServiceTest, testInstance = com.epam.backend.test.service.NewsServiceTest@5c7bfdc1, testMethod = testReadSingleNews@NewsServiceTest, testException = [null], mergedContextConfiguration = [MergedContextConfiguration@431cd9b2 testClass = NewsServiceTest, locations = '{classpath:**/test-config.xml}', classes = '{}', activeProfiles = '{}', contextLoader = 'org.springframework.test.context.support.DelegatingSmartContextLoader']]], class dirties context [false], class mode [null], method dirties context [false].
2015-04-03 09:20:26 DEBUG ProfileValueUtils:68 - Retrieved @ProfileValueSourceConfiguration [null] for test class [com.epam.backend.test.service.NewsServiceTest]
2015-04-03 09:20:26 DEBUG ProfileValueUtils:80 - Retrieved ProfileValueSource type [class org.springframework.test.annotation.SystemProfileValueSource] for class [com.epam.backend.test.service.NewsServiceTest]
2015-04-03 09:20:26 DEBUG DependencyInjectionTestExecutionListener:73 - Performing dependency injection for test context [[TestContext@72c8e7b testClass = NewsServiceTest, testInstance = com.epam.backend.test.service.NewsServiceTest@7dfd3c81, testMethod = [null], testException = [null], mergedContextConfiguration = [MergedContextConfiguration@431cd9b2 testClass = NewsServiceTest, locations = '{classpath:**/test-config.xml}', classes = '{}', activeProfiles = '{}', contextLoader = 'org.springframework.test.context.support.DelegatingSmartContextLoader']]].
2015-04-03 09:20:26 DEBUG TestContext:162 - Retrieved ApplicationContext for test class [class com.epam.backend.test.service.NewsServiceTest] from cache with key [[MergedContextConfiguration@431cd9b2 testClass = NewsServiceTest, locations = '{classpath:**/test-config.xml}', classes = '{}', activeProfiles = '{}', contextLoader = 'org.springframework.test.context.support.DelegatingSmartContextLoader']].
2015-04-03 09:20:26 DEBUG InjectionMetadata:85 - Processing injected method of bean 'com.epam.backend.test.service.NewsServiceTest': AutowiredFieldElement for private com.epam.backend.db.dao.INewsDAO com.epam.backend.test.service.NewsServiceTest.dao
2015-04-03 09:20:26 DEBUG DefaultListableBeanFactory:245 - Returning cached instance of singleton bean 'newsDao'
2015-04-03 09:20:26 DEBUG InjectionMetadata:85 - Processing injected method of bean 'com.epam.backend.test.service.NewsServiceTest': AutowiredFieldElement for private com.epam.backend.service.INewsService com.epam.backend.test.service.NewsServiceTest.serv
2015-04-03 09:20:26 DEBUG DefaultListableBeanFactory:245 - Returning cached instance of singleton bean 'newsService'
2015-04-03 09:20:26 DEBUG DirtiesContextTestExecutionListener:86 - After test method: context [[TestContext@72c8e7b testClass = NewsServiceTest, testInstance = com.epam.backend.test.service.NewsServiceTest@7dfd3c81, testMethod = testReadAll@NewsServiceTest, testException = [null], mergedContextConfiguration = [MergedContextConfiguration@431cd9b2 testClass = NewsServiceTest, locations = '{classpath:**/test-config.xml}', classes = '{}', activeProfiles = '{}', contextLoader = 'org.springframework.test.context.support.DelegatingSmartContextLoader']]], class dirties context [false], class mode [null], method dirties context [false].
2015-04-03 09:20:26 DEBUG ProfileValueUtils:68 - Retrieved @ProfileValueSourceConfiguration [null] for test class [com.epam.backend.test.service.NewsServiceTest]
2015-04-03 09:20:26 DEBUG ProfileValueUtils:80 - Retrieved ProfileValueSource type [class org.springframework.test.annotation.SystemProfileValueSource] for class [com.epam.backend.test.service.NewsServiceTest]
2015-04-03 09:20:26 DEBUG DependencyInjectionTestExecutionListener:73 - Performing dependency injection for test context [[TestContext@72c8e7b testClass = NewsServiceTest, testInstance = com.epam.backend.test.service.NewsServiceTest@1f9e9475, testMethod = [null], testException = [null], mergedContextConfiguration = [MergedContextConfiguration@431cd9b2 testClass = NewsServiceTest, locations = '{classpath:**/test-config.xml}', classes = '{}', activeProfiles = '{}', contextLoader = 'org.springframework.test.context.support.DelegatingSmartContextLoader']]].
2015-04-03 09:20:26 DEBUG TestContext:162 - Retrieved ApplicationContext for test class [class com.epam.backend.test.service.NewsServiceTest] from cache with key [[MergedContextConfiguration@431cd9b2 testClass = NewsServiceTest, locations = '{classpath:**/test-config.xml}', classes = '{}', activeProfiles = '{}', contextLoader = 'org.springframework.test.context.support.DelegatingSmartContextLoader']].
2015-04-03 09:20:26 DEBUG InjectionMetadata:85 - Processing injected method of bean 'com.epam.backend.test.service.NewsServiceTest': AutowiredFieldElement for private com.epam.backend.db.dao.INewsDAO com.epam.backend.test.service.NewsServiceTest.dao
2015-04-03 09:20:26 DEBUG DefaultListableBeanFactory:245 - Returning cached instance of singleton bean 'newsDao'
2015-04-03 09:20:26 DEBUG InjectionMetadata:85 - Processing injected method of bean 'com.epam.backend.test.service.NewsServiceTest': AutowiredFieldElement for private com.epam.backend.service.INewsService com.epam.backend.test.service.NewsServiceTest.serv
2015-04-03 09:20:26 DEBUG DefaultListableBeanFactory:245 - Returning cached instance of singleton bean 'newsService'
2015-04-03 09:20:26 DEBUG DirtiesContextTestExecutionListener:86 - After test method: context [[TestContext@72c8e7b testClass = NewsServiceTest, testInstance = com.epam.backend.test.service.NewsServiceTest@1f9e9475, testMethod = testCreate@NewsServiceTest, testException = [null], mergedContextConfiguration = [MergedContextConfiguration@431cd9b2 testClass = NewsServiceTest, locations = '{classpath:**/test-config.xml}', classes = '{}', activeProfiles = '{}', contextLoader = 'org.springframework.test.context.support.DelegatingSmartContextLoader']]], class dirties context [false], class mode [null], method dirties context [false].
2015-04-03 09:20:26 DEBUG ProfileValueUtils:68 - Retrieved @ProfileValueSourceConfiguration [null] for test class [com.epam.backend.test.service.NewsServiceTest]
2015-04-03 09:20:26 DEBUG ProfileValueUtils:80 - Retrieved ProfileValueSource type [class org.springframework.test.annotation.SystemProfileValueSource] for class [com.epam.backend.test.service.NewsServiceTest]
