2015-04-03 09:20:25 DEBUG DefaultListableBeanFactory:245 - Returning cached instance of singleton bean 'tagDao'
2015-04-03 09:20:25 DEBUG DefaultListableBeanFactory:245 - Returning cached instance of singleton bean 'newsMapper'
2015-04-03 09:20:25 DEBUG DefaultListableBeanFactory:245 - Returning cached instance of singleton bean 'tagMapper'
2015-04-03 09:20:25 DEBUG DefaultListableBeanFactory:245 - Returning cached instance of singleton bean 'authorMapper'
2015-04-03 09:20:25 DEBUG DefaultListableBeanFactory:245 - Returning cached instance of singleton bean 'commentMapper'
2015-04-03 09:20:25 DEBUG DefaultListableBeanFactory:245 - Returning cached instance of singleton bean 'org.springframework.context.annotation.ConfigurationClassPostProcessor$ImportAwareBeanPostProcessor#0'
2015-04-03 09:20:25 DEBUG GenericApplicationContext:845 - Unable to locate LifecycleProcessor with name 'lifecycleProcessor': using default [org.springframework.context.support.DefaultLifecycleProcessor@3fb1549b]
2015-04-03 09:20:25 DEBUG DefaultListableBeanFactory:245 - Returning cached instance of singleton bean 'lifecycleProcessor'
2015-04-03 09:20:25 DEBUG TestContext:150 - Storing ApplicationContext for test class [class com.epam.backend.test.service.AuthorServiceTest] in cache under key [[MergedContextConfiguration@67080771 testClass = AuthorServiceTest, locations = '{classpath:**/test-config.xml}', classes = '{}', activeProfiles = '{}', contextLoader = 'org.springframework.test.context.support.DelegatingSmartContextLoader']].
2015-04-03 09:20:25 DEBUG InjectionMetadata:60 - Found injected element on class [com.epam.backend.test.service.AuthorServiceTest]: AutowiredFieldElement for private com.epam.backend.db.dao.IAuthorDAO com.epam.backend.test.service.AuthorServiceTest.dao
2015-04-03 09:20:25 DEBUG InjectionMetadata:60 - Found injected element on class [com.epam.backend.test.service.AuthorServiceTest]: AutowiredFieldElement for private com.epam.backend.service.IAuthorService com.epam.backend.test.service.AuthorServiceTest.serv
2015-04-03 09:20:25 DEBUG InjectionMetadata:85 - Processing injected method of bean 'com.epam.backend.test.service.AuthorServiceTest': AutowiredFieldElement for private com.epam.backend.db.dao.IAuthorDAO com.epam.backend.test.service.AuthorServiceTest.dao
2015-04-03 09:20:25 DEBUG DefaultListableBeanFactory:245 - Returning cached instance of singleton bean 'authorDao'
2015-04-03 09:20:25 DEBUG AutowiredAnnotationBeanPostProcessor:424 - Autowiring by type from bean name 'com.epam.backend.test.service.AuthorServiceTest' to bean named 'authorDao'
2015-04-03 09:20:25 DEBUG InjectionMetadata:85 - Processing injected method of bean 'com.epam.backend.test.service.AuthorServiceTest': AutowiredFieldElement for private com.epam.backend.service.IAuthorService com.epam.backend.test.service.AuthorServiceTest.serv
2015-04-03 09:20:25 DEBUG DefaultListableBeanFactory:245 - Returning cached instance of singleton bean 'authorService'
2015-04-03 09:20:25 DEBUG AutowiredAnnotationBeanPostProcessor:424 - Autowiring by type from bean name 'com.epam.backend.test.service.AuthorServiceTest' to bean named 'authorService'
2015-04-03 09:20:26 DEBUG DirtiesContextTestExecutionListener:86 - After test method: context [[TestContext@79da8dc5 testClass = AuthorServiceTest, testInstance = com.epam.backend.test.service.AuthorServiceTest@1eb5174b, testMethod = testAdd@AuthorServiceTest, testException = java.lang.Error: Unresolved compilation problem: 
	The method create(AuthorTO) of type AuthorService must override a superclass method
, mergedContextConfiguration = [MergedContextConfiguration@67080771 testClass = AuthorServiceTest, locations = '{classpath:**/test-config.xml}', classes = '{}', activeProfiles = '{}', contextLoader = 'org.springframework.test.context.support.DelegatingSmartContextLoader']]], class dirties context [false], class mode [null], method dirties context [false].
2015-04-03 09:20:26 DEBUG DirtiesContextTestExecutionListener:113 - After test class: context [[TestContext@79da8dc5 testClass = AuthorServiceTest, testInstance = [null], testMethod = [null], testException = [null], mergedContextConfiguration = [MergedContextConfiguration@67080771 testClass = AuthorServiceTest, locations = '{classpath:**/test-config.xml}', classes = '{}', activeProfiles = '{}', contextLoader = 'org.springframework.test.context.support.DelegatingSmartContextLoader']]], dirtiesContext [false].
2015-04-03 09:20:26 DEBUG SpringJUnit4ClassRunner:106 - SpringJUnit4ClassRunner constructor called with [class com.epam.backend.test.service.CommentServiceTest].
2015-04-03 09:20:26 DEBUG DelegatingSmartContextLoader:75 - Delegating to GenericXmlContextLoader to process context configuration [ContextConfigurationAttributes@239a307b declaringClass = 'com.epam.backend.test.service.CommentServiceTest', locations = '{classpath:**/test-config.xml}', classes = '{}', inheritLocations = true, contextLoaderClass = 'org.springframework.test.context.ContextLoader'].
2015-04-03 09:20:26 DEBUG ContextLoaderUtils:236 - Could not find an 'annotation declaring class' for annotation type [interface org.springframework.test.context.ActiveProfiles] and class [class com.epam.backend.test.service.CommentServiceTest]
2015-04-03 09:20:26 INFO  TestContextManager:185 - @TestExecutionListeners is not present for class [class com.epam.backend.test.service.CommentServiceTest]: using defaults.
2015-04-03 09:20:26 DEBUG ProfileValueUtils:68 - Retrieved @ProfileValueSourceConfiguration [null] for test class [com.epam.backend.test.service.CommentServiceTest]
2015-04-03 09:20:26 DEBUG ProfileValueUtils:80 - Retrieved ProfileValueSource type [class org.springframework.test.annotation.SystemProfileValueSource] for class [com.epam.backend.test.service.CommentServiceTest]
2015-04-03 09:20:26 DEBUG ProfileValueUtils:68 - Retrieved @ProfileValueSourceConfiguration [null] for test class [com.epam.backend.test.service.CommentServiceTest]
2015-04-03 09:20:26 DEBUG ProfileValueUtils:80 - Retrieved ProfileValueSource type [class org.springframework.test.annotation.SystemProfileValueSource] for class [com.epam.backend.test.service.CommentServiceTest]
2015-04-03 09:20:26 DEBUG ProfileValueUtils:68 - Retrieved @ProfileValueSourceConfiguration [null] for test class [com.epam.backend.test.service.CommentServiceTest]
2015-04-03 09:20:26 DEBUG ProfileValueUtils:80 - Retrieved ProfileValueSource type [class org.springframework.test.annotation.SystemProfileValueSource] for class [com.epam.backend.test.service.CommentServiceTest]
2015-04-03 09:20:26 DEBUG DependencyInjectionTestExecutionListener:73 - Performing dependency injection for test context [[TestContext@6f204a1a testClass = CommentServiceTest, testInstance = com.epam.backend.test.service.CommentServiceTest@2de56eb2, testMethod = [null], testException = [null], mergedContextConfiguration = [MergedContextConfiguration@5f8e8a9d testClass = CommentServiceTest, locations = '{classpath:**/test-config.xml}', classes = '{}', activeProfiles = '{}', contextLoader = 'org.springframework.test.context.support.DelegatingSmartContextLoader']]].
2015-04-03 09:20:26 DEBUG TestContext:162 - Retrieved ApplicationContext for test class [class com.epam.backend.test.service.CommentServiceTest] from cache with key [[MergedContextConfiguration@5f8e8a9d testClass = CommentServiceTest, locations = '{classpath:**/test-config.xml}', classes = '{}', activeProfiles = '{}', contextLoader = 'org.springframework.test.context.support.DelegatingSmartContextLoader']].
2015-04-03 09:20:26 DEBUG InjectionMetadata:60 - Found injected element on class [com.epam.backend.test.service.CommentServiceTest]: AutowiredFieldElement for private com.epam.backend.service.ICommentService com.epam.backend.test.service.CommentServiceTest.serv
2015-04-03 09:20:26 DEBUG InjectionMetadata:85 - Processing injected method of bean 'com.epam.backend.test.service.CommentServiceTest': AutowiredFieldElement for private com.epam.backend.service.ICommentService com.epam.backend.test.service.CommentServiceTest.serv
2015-04-03 09:20:26 DEBUG DefaultListableBeanFactory:245 - Returning cached instance of singleton bean 'commentService'
2015-04-03 09:20:26 DEBUG AutowiredAnnotationBeanPostProcessor:424 - Autowiring by type from bean name 'com.epam.backend.test.service.CommentServiceTest' to bean named 'commentService'
2015-04-03 09:20:26 DEBUG DirtiesContextTestExecutionListener:86 - After test method: context [[TestContext@6f204a1a testClass = CommentServiceTest, testInstance = com.epam.backend.test.service.CommentServiceTest@2de56eb2, testMethod = testAdd@CommentServiceTest, testException = java.lang.Error: Unresolved compilation problem: 
	The method create(CommentTO) of type CommentService must override a superclass method
, mergedContextConfiguration = [MergedContextConfiguration@5f8e8a9d testClass = CommentServiceTest, locations = '{classpath:**/test-config.xml}', classes = '{}', activeProfiles = '{}', contextLoader = 'org.springframework.test.context.support.DelegatingSmartContextLoader']]], class dirties context [false], class mode [null], method dirties context [false].
2015-04-03 09:20:26 DEBUG ProfileValueUtils:68 - Retrieved @ProfileValueSourceConfiguration [null] for test class [com.epam.backend.test.service.CommentServiceTest]
2015-04-03 09:20:26 DEBUG ProfileValueUtils:80 - Retrieved ProfileValueSource type [class org.springframework.test.annotation.SystemProfileValueSource] for class [com.epam.backend.test.service.CommentServiceTest]
2015-04-03 09:20:26 DEBUG DependencyInjectionTestExecutionListener:73 - Performing dependency injection for test context [[TestContext@6f204a1a testClass = CommentServiceTest, testInstance = com.epam.backend.test.service.CommentServiceTest@4722ef0c, testMethod = [null], testException = [null], mergedContextConfiguration = [MergedContextConfiguration@5f8e8a9d testClass = CommentServiceTest, locations = '{classpath:**/test-config.xml}', classes = '{}', activeProfiles = '{}', contextLoader = 'org.springframework.test.context.support.DelegatingSmartContextLoader']]].
2015-04-03 09:20:26 DEBUG TestContext:162 - Retrieved ApplicationContext for test class [class com.epam.backend.test.service.CommentServiceTest] from cache with key [[MergedContextConfiguration@5f8e8a9d testClass = CommentServiceTest, locations = '{classpath:**/test-config.xml}', classes = '{}', activeProfiles = '{}', contextLoader = 'org.springframework.test.context.support.DelegatingSmartContextLoader']].
