2015-04-03 09:20:26 DEBUG DependencyInjectionTestExecutionListener:73 - Performing dependency injection for test context [[TestContext@72c8e7b testClass = NewsServiceTest, testInstance = com.epam.backend.test.service.NewsServiceTest@5dafbe45, testMethod = [null], testException = [null], mergedContextConfiguration = [MergedContextConfiguration@431cd9b2 testClass = NewsServiceTest, locations = '{classpath:**/test-config.xml}', classes = '{}', activeProfiles = '{}', contextLoader = 'org.springframework.test.context.support.DelegatingSmartContextLoader']]].
2015-04-03 09:20:26 DEBUG TestContext:162 - Retrieved ApplicationContext for test class [class com.epam.backend.test.service.NewsServiceTest] from cache with key [[MergedContextConfiguration@431cd9b2 testClass = NewsServiceTest, locations = '{classpath:**/test-config.xml}', classes = '{}', activeProfiles = '{}', contextLoader = 'org.springframework.test.context.support.DelegatingSmartContextLoader']].
2015-04-03 09:20:26 DEBUG InjectionMetadata:85 - Processing injected method of bean 'com.epam.backend.test.service.NewsServiceTest': AutowiredFieldElement for private com.epam.backend.db.dao.INewsDAO com.epam.backend.test.service.NewsServiceTest.dao
2015-04-03 09:20:26 DEBUG DefaultListableBeanFactory:245 - Returning cached instance of singleton bean 'newsDao'
2015-04-03 09:20:26 DEBUG InjectionMetadata:85 - Processing injected method of bean 'com.epam.backend.test.service.NewsServiceTest': AutowiredFieldElement for private com.epam.backend.service.INewsService com.epam.backend.test.service.NewsServiceTest.serv
2015-04-03 09:20:26 DEBUG DefaultListableBeanFactory:245 - Returning cached instance of singleton bean 'newsService'
2015-04-03 09:20:26 DEBUG DirtiesContextTestExecutionListener:86 - After test method: context [[TestContext@72c8e7b testClass = NewsServiceTest, testInstance = com.epam.backend.test.service.NewsServiceTest@5dafbe45, testMethod = testDelete@NewsServiceTest, testException = java.lang.Error: Unresolved compilation problem: 
	The method delete(int[]) of type NewsDAO must override a superclass method
, mergedContextConfiguration = [MergedContextConfiguration@431cd9b2 testClass = NewsServiceTest, locations = '{classpath:**/test-config.xml}', classes = '{}', activeProfiles = '{}', contextLoader = 'org.springframework.test.context.support.DelegatingSmartContextLoader']]], class dirties context [false], class mode [null], method dirties context [false].
2015-04-03 09:20:26 DEBUG DirtiesContextTestExecutionListener:113 - After test class: context [[TestContext@72c8e7b testClass = NewsServiceTest, testInstance = [null], testMethod = [null], testException = [null], mergedContextConfiguration = [MergedContextConfiguration@431cd9b2 testClass = NewsServiceTest, locations = '{classpath:**/test-config.xml}', classes = '{}', activeProfiles = '{}', contextLoader = 'org.springframework.test.context.support.DelegatingSmartContextLoader']]], dirtiesContext [false].
2015-04-03 09:20:26 DEBUG SpringJUnit4ClassRunner:106 - SpringJUnit4ClassRunner constructor called with [class com.epam.backend.test.service.TagServiceTest].
2015-04-03 09:20:26 DEBUG DelegatingSmartContextLoader:75 - Delegating to GenericXmlContextLoader to process context configuration [ContextConfigurationAttributes@13d73f29 declaringClass = 'com.epam.backend.test.service.TagServiceTest', locations = '{classpath:**/test-config.xml}', classes = '{}', inheritLocations = true, contextLoaderClass = 'org.springframework.test.context.ContextLoader'].
2015-04-03 09:20:26 DEBUG ContextLoaderUtils:236 - Could not find an 'annotation declaring class' for annotation type [interface org.springframework.test.context.ActiveProfiles] and class [class com.epam.backend.test.service.TagServiceTest]
2015-04-03 09:20:26 INFO  TestContextManager:185 - @TestExecutionListeners is not present for class [class com.epam.backend.test.service.TagServiceTest]: using defaults.
2015-04-03 09:20:26 DEBUG ProfileValueUtils:68 - Retrieved @ProfileValueSourceConfiguration [null] for test class [com.epam.backend.test.service.TagServiceTest]
2015-04-03 09:20:26 DEBUG ProfileValueUtils:80 - Retrieved ProfileValueSource type [class org.springframework.test.annotation.SystemProfileValueSource] for class [com.epam.backend.test.service.TagServiceTest]
2015-04-03 09:20:26 DEBUG ProfileValueUtils:68 - Retrieved @ProfileValueSourceConfiguration [null] for test class [com.epam.backend.test.service.TagServiceTest]
2015-04-03 09:20:26 DEBUG ProfileValueUtils:80 - Retrieved ProfileValueSource type [class org.springframework.test.annotation.SystemProfileValueSource] for class [com.epam.backend.test.service.TagServiceTest]
2015-04-03 09:20:26 DEBUG ProfileValueUtils:68 - Retrieved @ProfileValueSourceConfiguration [null] for test class [com.epam.backend.test.service.TagServiceTest]
2015-04-03 09:20:26 DEBUG ProfileValueUtils:80 - Retrieved ProfileValueSource type [class org.springframework.test.annotation.SystemProfileValueSource] for class [com.epam.backend.test.service.TagServiceTest]
2015-04-03 09:20:26 DEBUG DependencyInjectionTestExecutionListener:73 - Performing dependency injection for test context [[TestContext@7dc3712 testClass = TagServiceTest, testInstance = com.epam.backend.test.service.TagServiceTest@2f67a4d3, testMethod = [null], testException = [null], mergedContextConfiguration = [MergedContextConfiguration@5e3f861 testClass = TagServiceTest, locations = '{classpath:**/test-config.xml}', classes = '{}', activeProfiles = '{}', contextLoader = 'org.springframework.test.context.support.DelegatingSmartContextLoader']]].
2015-04-03 09:20:26 DEBUG TestContext:162 - Retrieved ApplicationContext for test class [class com.epam.backend.test.service.TagServiceTest] from cache with key [[MergedContextConfiguration@5e3f861 testClass = TagServiceTest, locations = '{classpath:**/test-config.xml}', classes = '{}', activeProfiles = '{}', contextLoader = 'org.springframework.test.context.support.DelegatingSmartContextLoader']].
2015-04-03 09:20:26 DEBUG InjectionMetadata:60 - Found injected element on class [com.epam.backend.test.service.TagServiceTest]: AutowiredFieldElement for private com.epam.backend.db.dao.ITagDAO com.epam.backend.test.service.TagServiceTest.dao
2015-04-03 09:20:26 DEBUG InjectionMetadata:60 - Found injected element on class [com.epam.backend.test.service.TagServiceTest]: AutowiredFieldElement for private com.epam.backend.service.ITagService com.epam.backend.test.service.TagServiceTest.serv
2015-04-03 09:20:26 DEBUG InjectionMetadata:85 - Processing injected method of bean 'com.epam.backend.test.service.TagServiceTest': AutowiredFieldElement for private com.epam.backend.db.dao.ITagDAO com.epam.backend.test.service.TagServiceTest.dao
2015-04-03 09:20:26 DEBUG DefaultListableBeanFactory:245 - Returning cached instance of singleton bean 'tagDao'
2015-04-03 09:20:26 DEBUG AutowiredAnnotationBeanPostProcessor:424 - Autowiring by type from bean name 'com.epam.backend.test.service.TagServiceTest' to bean named 'tagDao'
2015-04-03 09:20:26 DEBUG InjectionMetadata:85 - Processing injected method of bean 'com.epam.backend.test.service.TagServiceTest': AutowiredFieldElement for private com.epam.backend.service.ITagService com.epam.backend.test.service.TagServiceTest.serv
2015-04-03 09:20:26 DEBUG DefaultListableBeanFactory:245 - Returning cached instance of singleton bean 'tagService'
2015-04-03 09:20:26 DEBUG AutowiredAnnotationBeanPostProcessor:424 - Autowiring by type from bean name 'com.epam.backend.test.service.TagServiceTest' to bean named 'tagService'
2015-04-03 09:20:26 DEBUG DirtiesContextTestExecutionListener:86 - After test method: context [[TestContext@7dc3712 testClass = TagServiceTest, testInstance = com.epam.backend.test.service.TagServiceTest@2f67a4d3, testMethod = testAdd@TagServiceTest, testException = [null], mergedContextConfiguration = [MergedContextConfiguration@5e3f861 testClass = TagServiceTest, locations = '{classpath:**/test-config.xml}', classes = '{}', activeProfiles = '{}', contextLoader = 'org.springframework.test.context.support.DelegatingSmartContextLoader']]], class dirties context [false], class mode [null], method dirties context [false].
2015-04-03 09:20:26 DEBUG DirtiesContextTestExecutionListener:113 - After test class: context [[TestContext@7dc3712 testClass = TagServiceTest, testInstance = [null], testMethod = [null], testException = [null], mergedContextConfiguration = [MergedContextConfiguration@5e3f861 testClass = TagServiceTest, locations = '{classpath:**/test-config.xml}', classes = '{}', activeProfiles = '{}', contextLoader = 'org.springframework.test.context.support.DelegatingSmartContextLoader']]], dirtiesContext [false].
2015-04-03 09:20:26 INFO  GenericApplicationContext:1020 - Closing org.springframework.context.support.GenericApplicationContext@1753acfe: startup date [Fri Apr 03 09:20:15 FET 2015]; root of context hierarchy
2015-04-03 09:20:26 DEBUG DefaultListableBeanFactory:245 - Returning cached instance of singleton bean 'lifecycleProcessor'
2015-04-03 09:20:26 INFO  DefaultListableBeanFactory:433 - Destroying singletons in org.springframework.beans.factory.support.DefaultListableBeanFactory@1d371b2d: defining beans [org.springframework.context.annotation.internalConfigurationAnnotationProcessor,org.springframework.context.annotation.internalAutowiredAnnotationProcessor,org.springframework.context.annotation.internalRequiredAnnotationProcessor,org.springframework.context.annotation.internalCommonAnnotationProcessor,dataSource,dbUnitDatabaseConfig,dbUnitDatabaseConnection,authorService,commentService,newsService,tagService,newsDao,authorDao,commentDao,tagDao,newsMapper,tagMapper,authorMapper,commentMapper,org.springframework.context.annotation.ConfigurationClassPostProcessor$ImportAwareBeanPostProcessor#0]; root of factory hierarchy
2015-04-03 09:20:26 INFO  GenericApplicationContext:1020 - Closing org.springframework.context.support.GenericApplicationContext@72cde7cc: startup date [Fri Apr 03 09:20:25 FET 2015]; root of context hierarchy
2015-04-03 09:20:26 DEBUG DefaultListableBeanFactory:245 - Returning cached instance of singleton bean 'lifecycleProcessor'
2015-04-03 09:20:26 INFO  DefaultListableBeanFactory:433 - Destroying singletons in org.springframework.beans.factory.support.DefaultListableBeanFactory@57af006c: defining beans [org.springframework.context.annotation.internalConfigurationAnnotationProcessor,org.springframework.context.annotation.internalAutowiredAnnotationProcessor,org.springframework.context.annotation.internalRequiredAnnotationProcessor,org.springframework.context.annotation.internalCommonAnnotationProcessor,dataSource,dbUnitDatabaseConfig,dbUnitDatabaseConnection,authorService,commentService,newsService,tagService,newsDao,authorDao,commentDao,tagDao,newsMapper,tagMapper,authorMapper,commentMapper,org.springframework.context.annotation.ConfigurationClassPostProcessor$ImportAwareBeanPostProcessor#0]; root of factory hierarchy
