2015-04-03 09:20:25 DEBUG DefaultListableBeanFactory:458 - Finished creating instance of bean 'authorService'
2015-04-03 09:20:25 DEBUG DefaultListableBeanFactory:217 - Creating shared instance of singleton bean 'commentService'
2015-04-03 09:20:25 DEBUG DefaultListableBeanFactory:430 - Creating instance of bean 'commentService'
2015-04-03 09:20:25 DEBUG InjectionMetadata:60 - Found injected element on class [com.epam.backend.service.impl.CommentService]: AutowiredFieldElement for private com.epam.backend.db.dao.ICommentDAO com.epam.backend.service.impl.CommentService.commentDao
2015-04-03 09:20:25 DEBUG DefaultListableBeanFactory:504 - Eagerly caching bean 'commentService' to allow for resolving potential circular references
2015-04-03 09:20:25 DEBUG InjectionMetadata:85 - Processing injected method of bean 'commentService': AutowiredFieldElement for private com.epam.backend.db.dao.ICommentDAO com.epam.backend.service.impl.CommentService.commentDao
2015-04-03 09:20:25 DEBUG DefaultListableBeanFactory:217 - Creating shared instance of singleton bean 'commentDao'
2015-04-03 09:20:25 DEBUG DefaultListableBeanFactory:430 - Creating instance of bean 'commentDao'
2015-04-03 09:20:25 DEBUG InjectionMetadata:60 - Found injected element on class [com.epam.backend.db.dao.impl.CommentDAO]: AutowiredFieldElement for private javax.sql.DataSource com.epam.backend.db.dao.impl.CommentDAO.dataSource
2015-04-03 09:20:25 DEBUG InjectionMetadata:60 - Found injected element on class [com.epam.backend.db.dao.impl.CommentDAO]: AutowiredFieldElement for private com.epam.backend.mapper.IMapper com.epam.backend.db.dao.impl.CommentDAO.commentMapper
2015-04-03 09:20:25 DEBUG DefaultListableBeanFactory:504 - Eagerly caching bean 'commentDao' to allow for resolving potential circular references
2015-04-03 09:20:25 DEBUG InjectionMetadata:85 - Processing injected method of bean 'commentDao': AutowiredFieldElement for private javax.sql.DataSource com.epam.backend.db.dao.impl.CommentDAO.dataSource
2015-04-03 09:20:25 DEBUG DefaultListableBeanFactory:245 - Returning cached instance of singleton bean 'dataSource'
2015-04-03 09:20:25 DEBUG AutowiredAnnotationBeanPostProcessor:424 - Autowiring by type from bean name 'commentDao' to bean named 'dataSource'
2015-04-03 09:20:25 DEBUG InjectionMetadata:85 - Processing injected method of bean 'commentDao': AutowiredFieldElement for private com.epam.backend.mapper.IMapper com.epam.backend.db.dao.impl.CommentDAO.commentMapper
2015-04-03 09:20:25 DEBUG DefaultListableBeanFactory:245 - Returning cached instance of singleton bean 'newsMapper'
2015-04-03 09:20:25 DEBUG DefaultListableBeanFactory:245 - Returning cached instance of singleton bean 'tagMapper'
2015-04-03 09:20:25 DEBUG DefaultListableBeanFactory:245 - Returning cached instance of singleton bean 'authorMapper'
2015-04-03 09:20:25 DEBUG DefaultListableBeanFactory:245 - Returning cached instance of singleton bean 'commentMapper'
2015-04-03 09:20:25 DEBUG AutowiredAnnotationBeanPostProcessor:424 - Autowiring by type from bean name 'commentDao' to bean named 'commentMapper'
2015-04-03 09:20:25 DEBUG DefaultListableBeanFactory:458 - Finished creating instance of bean 'commentDao'
2015-04-03 09:20:25 DEBUG AutowiredAnnotationBeanPostProcessor:424 - Autowiring by type from bean name 'commentService' to bean named 'commentDao'
2015-04-03 09:20:25 DEBUG DefaultListableBeanFactory:458 - Finished creating instance of bean 'commentService'
2015-04-03 09:20:25 DEBUG DefaultListableBeanFactory:217 - Creating shared instance of singleton bean 'newsService'
2015-04-03 09:20:25 DEBUG DefaultListableBeanFactory:430 - Creating instance of bean 'newsService'
2015-04-03 09:20:25 DEBUG InjectionMetadata:60 - Found injected element on class [com.epam.backend.service.impl.NewsService]: AutowiredFieldElement for private com.epam.backend.db.dao.INewsDAO com.epam.backend.service.impl.NewsService.newsDao
2015-04-03 09:20:25 DEBUG DefaultListableBeanFactory:504 - Eagerly caching bean 'newsService' to allow for resolving potential circular references
2015-04-03 09:20:25 DEBUG InjectionMetadata:85 - Processing injected method of bean 'newsService': AutowiredFieldElement for private com.epam.backend.db.dao.INewsDAO com.epam.backend.service.impl.NewsService.newsDao
2015-04-03 09:20:25 DEBUG DefaultListableBeanFactory:217 - Creating shared instance of singleton bean 'newsDao'
2015-04-03 09:20:25 DEBUG DefaultListableBeanFactory:430 - Creating instance of bean 'newsDao'
2015-04-03 09:20:25 DEBUG InjectionMetadata:60 - Found injected element on class [com.epam.backend.db.dao.impl.NewsDAO]: AutowiredFieldElement for private javax.sql.DataSource com.epam.backend.db.dao.impl.NewsDAO.dataSource
2015-04-03 09:20:25 DEBUG InjectionMetadata:60 - Found injected element on class [com.epam.backend.db.dao.impl.NewsDAO]: AutowiredFieldElement for private com.epam.backend.mapper.IMapper com.epam.backend.db.dao.impl.NewsDAO.newsMapper
2015-04-03 09:20:25 DEBUG DefaultListableBeanFactory:504 - Eagerly caching bean 'newsDao' to allow for resolving potential circular references
2015-04-03 09:20:25 DEBUG InjectionMetadata:85 - Processing injected method of bean 'newsDao': AutowiredFieldElement for private javax.sql.DataSource com.epam.backend.db.dao.impl.NewsDAO.dataSource
2015-04-03 09:20:25 DEBUG DefaultListableBeanFactory:245 - Returning cached instance of singleton bean 'dataSource'
2015-04-03 09:20:25 DEBUG AutowiredAnnotationBeanPostProcessor:424 - Autowiring by type from bean name 'newsDao' to bean named 'dataSource'
2015-04-03 09:20:25 DEBUG InjectionMetadata:85 - Processing injected method of bean 'newsDao': AutowiredFieldElement for private com.epam.backend.mapper.IMapper com.epam.backend.db.dao.impl.NewsDAO.newsMapper
2015-04-03 09:20:25 DEBUG DefaultListableBeanFactory:245 - Returning cached instance of singleton bean 'newsMapper'
2015-04-03 09:20:25 DEBUG DefaultListableBeanFactory:245 - Returning cached instance of singleton bean 'tagMapper'
2015-04-03 09:20:25 DEBUG DefaultListableBeanFactory:245 - Returning cached instance of singleton bean 'authorMapper'
2015-04-03 09:20:25 DEBUG DefaultListableBeanFactory:245 - Returning cached instance of singleton bean 'commentMapper'
2015-04-03 09:20:25 DEBUG AutowiredAnnotationBeanPostProcessor:424 - Autowiring by type from bean name 'newsDao' to bean named 'newsMapper'
2015-04-03 09:20:25 DEBUG DefaultListableBeanFactory:458 - Finished creating instance of bean 'newsDao'
2015-04-03 09:20:25 DEBUG AutowiredAnnotationBeanPostProcessor:424 - Autowiring by type from bean name 'newsService' to bean named 'newsDao'
2015-04-03 09:20:25 DEBUG DefaultListableBeanFactory:458 - Finished creating instance of bean 'newsService'
2015-04-03 09:20:25 DEBUG DefaultListableBeanFactory:217 - Creating shared instance of singleton bean 'tagService'
2015-04-03 09:20:25 DEBUG DefaultListableBeanFactory:430 - Creating instance of bean 'tagService'
2015-04-03 09:20:25 DEBUG InjectionMetadata:60 - Found injected element on class [com.epam.backend.service.impl.TagService]: AutowiredFieldElement for private com.epam.backend.db.dao.ITagDAO com.epam.backend.service.impl.TagService.tagDao
2015-04-03 09:20:25 DEBUG DefaultListableBeanFactory:504 - Eagerly caching bean 'tagService' to allow for resolving potential circular references
2015-04-03 09:20:25 DEBUG InjectionMetadata:85 - Processing injected method of bean 'tagService': AutowiredFieldElement for private com.epam.backend.db.dao.ITagDAO com.epam.backend.service.impl.TagService.tagDao
2015-04-03 09:20:25 DEBUG DefaultListableBeanFactory:217 - Creating shared instance of singleton bean 'tagDao'
2015-04-03 09:20:25 DEBUG DefaultListableBeanFactory:430 - Creating instance of bean 'tagDao'
2015-04-03 09:20:25 DEBUG InjectionMetadata:60 - Found injected element on class [com.epam.backend.db.dao.impl.TagDAO]: AutowiredFieldElement for private javax.sql.DataSource com.epam.backend.db.dao.impl.TagDAO.dataSource
2015-04-03 09:20:25 DEBUG InjectionMetadata:60 - Found injected element on class [com.epam.backend.db.dao.impl.TagDAO]: AutowiredFieldElement for private com.epam.backend.mapper.IMapper com.epam.backend.db.dao.impl.TagDAO.tagMapper
2015-04-03 09:20:25 DEBUG DefaultListableBeanFactory:504 - Eagerly caching bean 'tagDao' to allow for resolving potential circular references
2015-04-03 09:20:25 DEBUG InjectionMetadata:85 - Processing injected method of bean 'tagDao': AutowiredFieldElement for private javax.sql.DataSource com.epam.backend.db.dao.impl.TagDAO.dataSource
2015-04-03 09:20:25 DEBUG DefaultListableBeanFactory:245 - Returning cached instance of singleton bean 'dataSource'
2015-04-03 09:20:25 DEBUG AutowiredAnnotationBeanPostProcessor:424 - Autowiring by type from bean name 'tagDao' to bean named 'dataSource'
2015-04-03 09:20:25 DEBUG InjectionMetadata:85 - Processing injected method of bean 'tagDao': AutowiredFieldElement for private com.epam.backend.mapper.IMapper com.epam.backend.db.dao.impl.TagDAO.tagMapper
2015-04-03 09:20:25 DEBUG DefaultListableBeanFactory:245 - Returning cached instance of singleton bean 'newsMapper'
2015-04-03 09:20:25 DEBUG DefaultListableBeanFactory:245 - Returning cached instance of singleton bean 'tagMapper'
2015-04-03 09:20:25 DEBUG DefaultListableBeanFactory:245 - Returning cached instance of singleton bean 'authorMapper'
2015-04-03 09:20:25 DEBUG DefaultListableBeanFactory:245 - Returning cached instance of singleton bean 'commentMapper'
2015-04-03 09:20:25 DEBUG AutowiredAnnotationBeanPostProcessor:424 - Autowiring by type from bean name 'tagDao' to bean named 'tagMapper'
2015-04-03 09:20:25 DEBUG DefaultListableBeanFactory:458 - Finished creating instance of bean 'tagDao'
2015-04-03 09:20:25 DEBUG AutowiredAnnotationBeanPostProcessor:424 - Autowiring by type from bean name 'tagService' to bean named 'tagDao'
2015-04-03 09:20:25 DEBUG DefaultListableBeanFactory:458 - Finished creating instance of bean 'tagService'
2015-04-03 09:20:25 DEBUG DefaultListableBeanFactory:245 - Returning cached instance of singleton bean 'newsDao'
2015-04-03 09:20:25 DEBUG DefaultListableBeanFactory:245 - Returning cached instance of singleton bean 'authorDao'
2015-04-03 09:20:25 DEBUG DefaultListableBeanFactory:245 - Returning cached instance of singleton bean 'commentDao'
