2015-04-03 09:20:26 DEBUG InjectionMetadata:85 - Processing injected method of bean 'com.epam.backend.test.service.CommentServiceTest': AutowiredFieldElement for private com.epam.backend.service.ICommentService com.epam.backend.test.service.CommentServiceTest.serv
2015-04-03 09:20:26 DEBUG DefaultListableBeanFactory:245 - Returning cached instance of singleton bean 'commentService'
2015-04-03 09:20:26 DEBUG DirtiesContextTestExecutionListener:86 - After test method: context [[TestContext@6f204a1a testClass = CommentServiceTest, testInstance = com.epam.backend.test.service.CommentServiceTest@4722ef0c, testMethod = testDelete@CommentServiceTest, testException = java.lang.Error: Unresolved compilation problem: 
	The method delete(int[]) of type CommentService must override a superclass method
, mergedContextConfiguration = [MergedContextConfiguration@5f8e8a9d testClass = CommentServiceTest, locations = '{classpath:**/test-config.xml}', classes = '{}', activeProfiles = '{}', contextLoader = 'org.springframework.test.context.support.DelegatingSmartContextLoader']]], class dirties context [false], class mode [null], method dirties context [false].
2015-04-03 09:20:26 DEBUG DirtiesContextTestExecutionListener:113 - After test class: context [[TestContext@6f204a1a testClass = CommentServiceTest, testInstance = [null], testMethod = [null], testException = [null], mergedContextConfiguration = [MergedContextConfiguration@5f8e8a9d testClass = CommentServiceTest, locations = '{classpath:**/test-config.xml}', classes = '{}', activeProfiles = '{}', contextLoader = 'org.springframework.test.context.support.DelegatingSmartContextLoader']]], dirtiesContext [false].
2015-04-03 09:20:26 DEBUG SpringJUnit4ClassRunner:106 - SpringJUnit4ClassRunner constructor called with [class com.epam.backend.test.service.NewsServiceTest].
2015-04-03 09:20:26 DEBUG DelegatingSmartContextLoader:75 - Delegating to GenericXmlContextLoader to process context configuration [ContextConfigurationAttributes@194fad1 declaringClass = 'com.epam.backend.test.service.NewsServiceTest', locations = '{classpath:**/test-config.xml}', classes = '{}', inheritLocations = true, contextLoaderClass = 'org.springframework.test.context.ContextLoader'].
2015-04-03 09:20:26 DEBUG ContextLoaderUtils:236 - Could not find an 'annotation declaring class' for annotation type [interface org.springframework.test.context.ActiveProfiles] and class [class com.epam.backend.test.service.NewsServiceTest]
2015-04-03 09:20:26 INFO  TestContextManager:185 - @TestExecutionListeners is not present for class [class com.epam.backend.test.service.NewsServiceTest]: using defaults.
2015-04-03 09:20:26 DEBUG ProfileValueUtils:68 - Retrieved @ProfileValueSourceConfiguration [null] for test class [com.epam.backend.test.service.NewsServiceTest]
2015-04-03 09:20:26 DEBUG ProfileValueUtils:80 - Retrieved ProfileValueSource type [class org.springframework.test.annotation.SystemProfileValueSource] for class [com.epam.backend.test.service.NewsServiceTest]
2015-04-03 09:20:26 DEBUG ProfileValueUtils:68 - Retrieved @ProfileValueSourceConfiguration [null] for test class [com.epam.backend.test.service.NewsServiceTest]
2015-04-03 09:20:26 DEBUG ProfileValueUtils:80 - Retrieved ProfileValueSource type [class org.springframework.test.annotation.SystemProfileValueSource] for class [com.epam.backend.test.service.NewsServiceTest]
2015-04-03 09:20:26 DEBUG ProfileValueUtils:68 - Retrieved @ProfileValueSourceConfiguration [null] for test class [com.epam.backend.test.service.NewsServiceTest]
2015-04-03 09:20:26 DEBUG ProfileValueUtils:80 - Retrieved ProfileValueSource type [class org.springframework.test.annotation.SystemProfileValueSource] for class [com.epam.backend.test.service.NewsServiceTest]
2015-04-03 09:20:26 DEBUG DependencyInjectionTestExecutionListener:73 - Performing dependency injection for test context [[TestContext@72c8e7b testClass = NewsServiceTest, testInstance = com.epam.backend.test.service.NewsServiceTest@65f8f5ae, testMethod = [null], testException = [null], mergedContextConfiguration = [MergedContextConfiguration@431cd9b2 testClass = NewsServiceTest, locations = '{classpath:**/test-config.xml}', classes = '{}', activeProfiles = '{}', contextLoader = 'org.springframework.test.context.support.DelegatingSmartContextLoader']]].
2015-04-03 09:20:26 DEBUG TestContext:162 - Retrieved ApplicationContext for test class [class com.epam.backend.test.service.NewsServiceTest] from cache with key [[MergedContextConfiguration@431cd9b2 testClass = NewsServiceTest, locations = '{classpath:**/test-config.xml}', classes = '{}', activeProfiles = '{}', contextLoader = 'org.springframework.test.context.support.DelegatingSmartContextLoader']].
2015-04-03 09:20:26 DEBUG InjectionMetadata:60 - Found injected element on class [com.epam.backend.test.service.NewsServiceTest]: AutowiredFieldElement for private com.epam.backend.db.dao.INewsDAO com.epam.backend.test.service.NewsServiceTest.dao
2015-04-03 09:20:26 DEBUG InjectionMetadata:60 - Found injected element on class [com.epam.backend.test.service.NewsServiceTest]: AutowiredFieldElement for private com.epam.backend.service.INewsService com.epam.backend.test.service.NewsServiceTest.serv
2015-04-03 09:20:26 DEBUG InjectionMetadata:85 - Processing injected method of bean 'com.epam.backend.test.service.NewsServiceTest': AutowiredFieldElement for private com.epam.backend.db.dao.INewsDAO com.epam.backend.test.service.NewsServiceTest.dao
2015-04-03 09:20:26 DEBUG DefaultListableBeanFactory:245 - Returning cached instance of singleton bean 'newsDao'
2015-04-03 09:20:26 DEBUG AutowiredAnnotationBeanPostProcessor:424 - Autowiring by type from bean name 'com.epam.backend.test.service.NewsServiceTest' to bean named 'newsDao'
2015-04-03 09:20:26 DEBUG InjectionMetadata:85 - Processing injected method of bean 'com.epam.backend.test.service.NewsServiceTest': AutowiredFieldElement for private com.epam.backend.service.INewsService com.epam.backend.test.service.NewsServiceTest.serv
2015-04-03 09:20:26 DEBUG DefaultListableBeanFactory:245 - Returning cached instance of singleton bean 'newsService'
2015-04-03 09:20:26 DEBUG AutowiredAnnotationBeanPostProcessor:424 - Autowiring by type from bean name 'com.epam.backend.test.service.NewsServiceTest' to bean named 'newsService'
2015-04-03 09:20:26 DEBUG DirtiesContextTestExecutionListener:86 - After test method: context [[TestContext@72c8e7b testClass = NewsServiceTest, testInstance = com.epam.backend.test.service.NewsServiceTest@65f8f5ae, testMethod = testEdit@NewsServiceTest, testException = [null], mergedContextConfiguration = [MergedContextConfiguration@431cd9b2 testClass = NewsServiceTest, locations = '{classpath:**/test-config.xml}', classes = '{}', activeProfiles = '{}', contextLoader = 'org.springframework.test.context.support.DelegatingSmartContextLoader']]], class dirties context [false], class mode [null], method dirties context [false].
2015-04-03 09:20:26 DEBUG ProfileValueUtils:68 - Retrieved @ProfileValueSourceConfiguration [null] for test class [com.epam.backend.test.service.NewsServiceTest]
2015-04-03 09:20:26 DEBUG ProfileValueUtils:80 - Retrieved ProfileValueSource type [class org.springframework.test.annotation.SystemProfileValueSource] for class [com.epam.backend.test.service.NewsServiceTest]
2015-04-03 09:20:26 DEBUG DependencyInjectionTestExecutionListener:73 - Performing dependency injection for test context [[TestContext@72c8e7b testClass = NewsServiceTest, testInstance = com.epam.backend.test.service.NewsServiceTest@29d80d2b, testMethod = [null], testException = [null], mergedContextConfiguration = [MergedContextConfiguration@431cd9b2 testClass = NewsServiceTest, locations = '{classpath:**/test-config.xml}', classes = '{}', activeProfiles = '{}', contextLoader = 'org.springframework.test.context.support.DelegatingSmartContextLoader']]].
2015-04-03 09:20:26 DEBUG TestContext:162 - Retrieved ApplicationContext for test class [class com.epam.backend.test.service.NewsServiceTest] from cache with key [[MergedContextConfiguration@431cd9b2 testClass = NewsServiceTest, locations = '{classpath:**/test-config.xml}', classes = '{}', activeProfiles = '{}', contextLoader = 'org.springframework.test.context.support.DelegatingSmartContextLoader']].
2015-04-03 09:20:26 DEBUG InjectionMetadata:85 - Processing injected method of bean 'com.epam.backend.test.service.NewsServiceTest': AutowiredFieldElement for private com.epam.backend.db.dao.INewsDAO com.epam.backend.test.service.NewsServiceTest.dao
2015-04-03 09:20:26 DEBUG DefaultListableBeanFactory:245 - Returning cached instance of singleton bean 'newsDao'
2015-04-03 09:20:26 DEBUG InjectionMetadata:85 - Processing injected method of bean 'com.epam.backend.test.service.NewsServiceTest': AutowiredFieldElement for private com.epam.backend.service.INewsService com.epam.backend.test.service.NewsServiceTest.serv
2015-04-03 09:20:26 DEBUG DefaultListableBeanFactory:245 - Returning cached instance of singleton bean 'newsService'
2015-04-03 09:20:26 DEBUG DirtiesContextTestExecutionListener:86 - After test method: context [[TestContext@72c8e7b testClass = NewsServiceTest, testInstance = com.epam.backend.test.service.NewsServiceTest@29d80d2b, testMethod = testFetchByTagId@NewsServiceTest, testException = [null], mergedContextConfiguration = [MergedContextConfiguration@431cd9b2 testClass = NewsServiceTest, locations = '{classpath:**/test-config.xml}', classes = '{}', activeProfiles = '{}', contextLoader = 'org.springframework.test.context.support.DelegatingSmartContextLoader']]], class dirties context [false], class mode [null], method dirties context [false].
2015-04-03 09:20:26 DEBUG ProfileValueUtils:68 - Retrieved @ProfileValueSourceConfiguration [null] for test class [com.epam.backend.test.service.NewsServiceTest]
2015-04-03 09:20:26 DEBUG ProfileValueUtils:80 - Retrieved ProfileValueSource type [class org.springframework.test.annotation.SystemProfileValueSource] for class [com.epam.backend.test.service.NewsServiceTest]
2015-04-03 09:20:26 DEBUG DependencyInjectionTestExecutionListener:73 - Performing dependency injection for test context [[TestContext@72c8e7b testClass = NewsServiceTest, testInstance = com.epam.backend.test.service.NewsServiceTest@387a8303, testMethod = [null], testException = [null], mergedContextConfiguration = [MergedContextConfiguration@431cd9b2 testClass = NewsServiceTest, locations = '{classpath:**/test-config.xml}', classes = '{}', activeProfiles = '{}', contextLoader = 'org.springframework.test.context.support.DelegatingSmartContextLoader']]].
