2015-06-16 12:09:11 DEBUG DefaultListableBeanFactory:458 - Finished creating instance of bean 'authorService'
2015-06-16 12:09:11 DEBUG DefaultListableBeanFactory:217 - Creating shared instance of singleton bean 'commentService'
2015-06-16 12:09:11 DEBUG DefaultListableBeanFactory:430 - Creating instance of bean 'commentService'
2015-06-16 12:09:11 DEBUG InjectionMetadata:60 - Found injected element on class [com.epam.news.service.impl.CommentService]: AutowiredFieldElement for private com.epam.news.db.dao.CommentDAO com.epam.news.service.impl.CommentService.commentDao
2015-06-16 12:09:11 DEBUG DefaultListableBeanFactory:504 - Eagerly caching bean 'commentService' to allow for resolving potential circular references
2015-06-16 12:09:11 DEBUG InjectionMetadata:85 - Processing injected method of bean 'commentService': AutowiredFieldElement for private com.epam.news.db.dao.CommentDAO com.epam.news.service.impl.CommentService.commentDao
2015-06-16 12:09:11 DEBUG DefaultListableBeanFactory:217 - Creating shared instance of singleton bean 'commentDao'
2015-06-16 12:09:11 DEBUG DefaultListableBeanFactory:430 - Creating instance of bean 'commentDao'
2015-06-16 12:09:11 DEBUG InjectionMetadata:60 - Found injected element on class [com.epam.news.db.dao.jdbc.JDBCCommentDAO]: AutowiredFieldElement for private javax.sql.DataSource com.epam.news.db.dao.jdbc.JDBCCommentDAO.dataSource
2015-06-16 12:09:11 DEBUG InjectionMetadata:60 - Found injected element on class [com.epam.news.db.dao.jdbc.JDBCCommentDAO]: AutowiredFieldElement for private com.epam.news.mapper.IMapper com.epam.news.db.dao.jdbc.JDBCCommentDAO.commentMapper
2015-06-16 12:09:11 DEBUG DefaultListableBeanFactory:504 - Eagerly caching bean 'commentDao' to allow for resolving potential circular references
2015-06-16 12:09:11 DEBUG InjectionMetadata:85 - Processing injected method of bean 'commentDao': AutowiredFieldElement for private javax.sql.DataSource com.epam.news.db.dao.jdbc.JDBCCommentDAO.dataSource
2015-06-16 12:09:11 DEBUG DefaultListableBeanFactory:245 - Returning cached instance of singleton bean 'dataSource'
2015-06-16 12:09:11 DEBUG AutowiredAnnotationBeanPostProcessor:424 - Autowiring by type from bean name 'commentDao' to bean named 'dataSource'
2015-06-16 12:09:11 DEBUG InjectionMetadata:85 - Processing injected method of bean 'commentDao': AutowiredFieldElement for private com.epam.news.mapper.IMapper com.epam.news.db.dao.jdbc.JDBCCommentDAO.commentMapper
2015-06-16 12:09:11 DEBUG DefaultListableBeanFactory:245 - Returning cached instance of singleton bean 'newsMapper'
2015-06-16 12:09:11 DEBUG DefaultListableBeanFactory:245 - Returning cached instance of singleton bean 'tagMapper'
2015-06-16 12:09:11 DEBUG DefaultListableBeanFactory:245 - Returning cached instance of singleton bean 'authorMapper'
2015-06-16 12:09:11 DEBUG DefaultListableBeanFactory:245 - Returning cached instance of singleton bean 'commentMapper'
2015-06-16 12:09:11 DEBUG AutowiredAnnotationBeanPostProcessor:424 - Autowiring by type from bean name 'commentDao' to bean named 'commentMapper'
2015-06-16 12:09:11 DEBUG DefaultListableBeanFactory:458 - Finished creating instance of bean 'commentDao'
2015-06-16 12:09:11 DEBUG AutowiredAnnotationBeanPostProcessor:424 - Autowiring by type from bean name 'commentService' to bean named 'commentDao'
2015-06-16 12:09:11 DEBUG DefaultListableBeanFactory:458 - Finished creating instance of bean 'commentService'
2015-06-16 12:09:11 DEBUG DefaultListableBeanFactory:217 - Creating shared instance of singleton bean 'newsService'
2015-06-16 12:09:11 DEBUG DefaultListableBeanFactory:430 - Creating instance of bean 'newsService'
2015-06-16 12:09:11 DEBUG InjectionMetadata:60 - Found injected element on class [com.epam.news.service.impl.NewsService]: AutowiredFieldElement for private com.epam.news.db.dao.NewsDAO com.epam.news.service.impl.NewsService.newsDao
2015-06-16 12:09:11 DEBUG InjectionMetadata:60 - Found injected element on class [com.epam.news.service.impl.NewsService]: AutowiredFieldElement for private com.epam.news.db.dao.AuthorDAO com.epam.news.service.impl.NewsService.authorDao
2015-06-16 12:09:11 DEBUG InjectionMetadata:60 - Found injected element on class [com.epam.news.service.impl.NewsService]: AutowiredFieldElement for private com.epam.news.db.dao.TagDAO com.epam.news.service.impl.NewsService.tagDao
2015-06-16 12:09:11 DEBUG DefaultListableBeanFactory:504 - Eagerly caching bean 'newsService' to allow for resolving potential circular references
2015-06-16 12:09:11 DEBUG InjectionMetadata:85 - Processing injected method of bean 'newsService': AutowiredFieldElement for private com.epam.news.db.dao.NewsDAO com.epam.news.service.impl.NewsService.newsDao
2015-06-16 12:09:11 DEBUG DefaultListableBeanFactory:217 - Creating shared instance of singleton bean 'newsDao'
2015-06-16 12:09:11 DEBUG DefaultListableBeanFactory:430 - Creating instance of bean 'newsDao'
2015-06-16 12:09:11 DEBUG InjectionMetadata:60 - Found injected element on class [com.epam.news.db.dao.jdbc.JDBCNewsDAO]: AutowiredFieldElement for private javax.sql.DataSource com.epam.news.db.dao.jdbc.JDBCNewsDAO.dataSource
2015-06-16 12:09:11 DEBUG InjectionMetadata:60 - Found injected element on class [com.epam.news.db.dao.jdbc.JDBCNewsDAO]: AutowiredFieldElement for private com.epam.news.mapper.IMapper com.epam.news.db.dao.jdbc.JDBCNewsDAO.newsMapper
2015-06-16 12:09:11 DEBUG DefaultListableBeanFactory:504 - Eagerly caching bean 'newsDao' to allow for resolving potential circular references
2015-06-16 12:09:11 DEBUG InjectionMetadata:85 - Processing injected method of bean 'newsDao': AutowiredFieldElement for private javax.sql.DataSource com.epam.news.db.dao.jdbc.JDBCNewsDAO.dataSource
2015-06-16 12:09:11 DEBUG DefaultListableBeanFactory:245 - Returning cached instance of singleton bean 'dataSource'
2015-06-16 12:09:11 DEBUG AutowiredAnnotationBeanPostProcessor:424 - Autowiring by type from bean name 'newsDao' to bean named 'dataSource'
2015-06-16 12:09:11 DEBUG InjectionMetadata:85 - Processing injected method of bean 'newsDao': AutowiredFieldElement for private com.epam.news.mapper.IMapper com.epam.news.db.dao.jdbc.JDBCNewsDAO.newsMapper
2015-06-16 12:09:11 DEBUG DefaultListableBeanFactory:245 - Returning cached instance of singleton bean 'newsMapper'
2015-06-16 12:09:11 DEBUG DefaultListableBeanFactory:245 - Returning cached instance of singleton bean 'tagMapper'
2015-06-16 12:09:11 DEBUG DefaultListableBeanFactory:245 - Returning cached instance of singleton bean 'authorMapper'
2015-06-16 12:09:11 DEBUG DefaultListableBeanFactory:245 - Returning cached instance of singleton bean 'commentMapper'
2015-06-16 12:09:11 DEBUG AutowiredAnnotationBeanPostProcessor:424 - Autowiring by type from bean name 'newsDao' to bean named 'newsMapper'
2015-06-16 12:09:11 DEBUG DefaultListableBeanFactory:458 - Finished creating instance of bean 'newsDao'
2015-06-16 12:09:11 DEBUG AutowiredAnnotationBeanPostProcessor:424 - Autowiring by type from bean name 'newsService' to bean named 'newsDao'
2015-06-16 12:09:11 DEBUG InjectionMetadata:85 - Processing injected method of bean 'newsService': AutowiredFieldElement for private com.epam.news.db.dao.AuthorDAO com.epam.news.service.impl.NewsService.authorDao
2015-06-16 12:09:11 DEBUG DefaultListableBeanFactory:245 - Returning cached instance of singleton bean 'authorDao'
2015-06-16 12:09:11 DEBUG AutowiredAnnotationBeanPostProcessor:424 - Autowiring by type from bean name 'newsService' to bean named 'authorDao'
2015-06-16 12:09:11 DEBUG InjectionMetadata:85 - Processing injected method of bean 'newsService': AutowiredFieldElement for private com.epam.news.db.dao.TagDAO com.epam.news.service.impl.NewsService.tagDao
2015-06-16 12:09:11 DEBUG DefaultListableBeanFactory:217 - Creating shared instance of singleton bean 'tagDao'
2015-06-16 12:09:11 DEBUG DefaultListableBeanFactory:430 - Creating instance of bean 'tagDao'
2015-06-16 12:09:11 DEBUG InjectionMetadata:60 - Found injected element on class [com.epam.news.db.dao.jdbc.JDBCTagDAO]: AutowiredFieldElement for private javax.sql.DataSource com.epam.news.db.dao.jdbc.JDBCTagDAO.dataSource
2015-06-16 12:09:11 DEBUG InjectionMetadata:60 - Found injected element on class [com.epam.news.db.dao.jdbc.JDBCTagDAO]: AutowiredFieldElement for private com.epam.news.mapper.IMapper com.epam.news.db.dao.jdbc.JDBCTagDAO.tagMapper
2015-06-16 12:09:11 DEBUG DefaultListableBeanFactory:504 - Eagerly caching bean 'tagDao' to allow for resolving potential circular references
2015-06-16 12:09:11 DEBUG InjectionMetadata:85 - Processing injected method of bean 'tagDao': AutowiredFieldElement for private javax.sql.DataSource com.epam.news.db.dao.jdbc.JDBCTagDAO.dataSource
2015-06-16 12:09:11 DEBUG DefaultListableBeanFactory:245 - Returning cached instance of singleton bean 'dataSource'
2015-06-16 12:09:11 DEBUG AutowiredAnnotationBeanPostProcessor:424 - Autowiring by type from bean name 'tagDao' to bean named 'dataSource'
2015-06-16 12:09:11 DEBUG InjectionMetadata:85 - Processing injected method of bean 'tagDao': AutowiredFieldElement for private com.epam.news.mapper.IMapper com.epam.news.db.dao.jdbc.JDBCTagDAO.tagMapper
2015-06-16 12:09:11 DEBUG DefaultListableBeanFactory:245 - Returning cached instance of singleton bean 'newsMapper'
2015-06-16 12:09:11 DEBUG DefaultListableBeanFactory:245 - Returning cached instance of singleton bean 'tagMapper'
2015-06-16 12:09:11 DEBUG DefaultListableBeanFactory:245 - Returning cached instance of singleton bean 'authorMapper'
2015-06-16 12:09:11 DEBUG DefaultListableBeanFactory:245 - Returning cached instance of singleton bean 'commentMapper'
2015-06-16 12:09:11 DEBUG AutowiredAnnotationBeanPostProcessor:424 - Autowiring by type from bean name 'tagDao' to bean named 'tagMapper'
2015-06-16 12:09:11 DEBUG DefaultListableBeanFactory:458 - Finished creating instance of bean 'tagDao'
2015-06-16 12:09:11 DEBUG AutowiredAnnotationBeanPostProcessor:424 - Autowiring by type from bean name 'newsService' to bean named 'tagDao'
2015-06-16 12:09:11 DEBUG DefaultListableBeanFactory:458 - Finished creating instance of bean 'newsService'
2015-06-16 12:09:11 DEBUG DefaultListableBeanFactory:217 - Creating shared instance of singleton bean 'tagService'
