2015-06-16 12:09:10 DEBUG PluggableSchemaResolver:118 - Found XML schema [http://www.springframework.org/schema/beans/spring-beans-3.0.xsd] in classpath: org/springframework/beans/factory/xml/spring-beans-3.0.xsd
2015-06-16 12:09:10 DEBUG PluggableSchemaResolver:118 - Found XML schema [http://www.springframework.org/schema/context/spring-context-3.0.xsd] in classpath: org/springframework/context/config/spring-context-3.0.xsd
2015-06-16 12:09:10 DEBUG PluggableSchemaResolver:118 - Found XML schema [http://www.springframework.org/schema/tool/spring-tool-3.0.xsd] in classpath: org/springframework/beans/factory/xml/spring-tool-3.0.xsd
2015-06-16 12:09:10 DEBUG DefaultBeanDefinitionDocumentReader:108 - Loading bean definitions
2015-06-16 12:09:10 DEBUG DefaultNamespaceHandlerResolver:156 - Loaded NamespaceHandler mappings: {http://www.springframework.org/schema/p=org.springframework.beans.factory.xml.SimplePropertyNamespaceHandler, http://www.springframework.org/schema/mvc=org.springframework.web.servlet.config.MvcNamespaceHandler, http://www.springframework.org/schema/util=org.springframework.beans.factory.xml.UtilNamespaceHandler, http://www.springframework.org/schema/jee=org.springframework.ejb.config.JeeNamespaceHandler, http://www.springframework.org/schema/aop=org.springframework.aop.config.AopNamespaceHandler, http://www.springframework.org/schema/jdbc=org.springframework.jdbc.config.JdbcNamespaceHandler, http://www.springframework.org/schema/cache=org.springframework.cache.config.CacheNamespaceHandler, http://www.springframework.org/schema/c=org.springframework.beans.factory.xml.SimpleConstructorNamespaceHandler, http://www.springframework.org/schema/tx=org.springframework.transaction.config.TxNamespaceHandler, http://www.springframework.org/schema/task=org.springframework.scheduling.config.TaskNamespaceHandler, http://www.springframework.org/schema/lang=org.springframework.scripting.config.LangNamespaceHandler, http://www.springframework.org/schema/context=org.springframework.context.config.ContextNamespaceHandler}
2015-06-16 12:09:10 DEBUG BeanDefinitionParserDelegate:497 - Neither XML 'id' nor 'name' specified - using generated bean name [org.dbunit.ext.oracle.OracleDataTypeFactory#656254c5]
2015-06-16 12:09:10 DEBUG XmlBeanDefinitionReader:216 - Loaded 20 bean definitions from location pattern [classpath:test-config.xml]
2015-06-16 12:09:10 INFO  GenericApplicationContext:495 - Refreshing org.springframework.context.support.GenericApplicationContext@7d7ca0f5: startup date [Tue Jun 16 12:09:10 BRT 2015]; root of context hierarchy
2015-06-16 12:09:10 DEBUG GenericApplicationContext:525 - Bean factory for org.springframework.context.support.GenericApplicationContext@7d7ca0f5: org.springframework.beans.factory.support.DefaultListableBeanFactory@9ad6d84: defining beans [org.springframework.context.annotation.internalConfigurationAnnotationProcessor,org.springframework.context.annotation.internalAutowiredAnnotationProcessor,org.springframework.context.annotation.internalRequiredAnnotationProcessor,org.springframework.context.annotation.internalCommonAnnotationProcessor,dataSource,dbUnitDatabaseConfig,dbUnitDatabaseConnection,authorService,commentService,newsService,tagService,hiberNewsDao,newsDao,authorDao,commentDao,tagDao,newsMapper,tagMapper,authorMapper,commentMapper]; root of factory hierarchy
2015-06-16 12:09:10 DEBUG DefaultListableBeanFactory:217 - Creating shared instance of singleton bean 'org.springframework.context.annotation.internalConfigurationAnnotationProcessor'
2015-06-16 12:09:10 DEBUG DefaultListableBeanFactory:430 - Creating instance of bean 'org.springframework.context.annotation.internalConfigurationAnnotationProcessor'
2015-06-16 12:09:10 DEBUG DefaultListableBeanFactory:504 - Eagerly caching bean 'org.springframework.context.annotation.internalConfigurationAnnotationProcessor' to allow for resolving potential circular references
2015-06-16 12:09:10 DEBUG DefaultListableBeanFactory:458 - Finished creating instance of bean 'org.springframework.context.annotation.internalConfigurationAnnotationProcessor'
2015-06-16 12:09:10 DEBUG DefaultListableBeanFactory:217 - Creating shared instance of singleton bean 'org.springframework.context.annotation.internalAutowiredAnnotationProcessor'
2015-06-16 12:09:10 DEBUG DefaultListableBeanFactory:430 - Creating instance of bean 'org.springframework.context.annotation.internalAutowiredAnnotationProcessor'
2015-06-16 12:09:10 DEBUG DefaultListableBeanFactory:504 - Eagerly caching bean 'org.springframework.context.annotation.internalAutowiredAnnotationProcessor' to allow for resolving potential circular references
2015-06-16 12:09:10 DEBUG DefaultListableBeanFactory:458 - Finished creating instance of bean 'org.springframework.context.annotation.internalAutowiredAnnotationProcessor'
2015-06-16 12:09:10 DEBUG DefaultListableBeanFactory:217 - Creating shared instance of singleton bean 'org.springframework.context.annotation.internalRequiredAnnotationProcessor'
2015-06-16 12:09:10 DEBUG DefaultListableBeanFactory:430 - Creating instance of bean 'org.springframework.context.annotation.internalRequiredAnnotationProcessor'
2015-06-16 12:09:10 DEBUG DefaultListableBeanFactory:504 - Eagerly caching bean 'org.springframework.context.annotation.internalRequiredAnnotationProcessor' to allow for resolving potential circular references
2015-06-16 12:09:10 DEBUG DefaultListableBeanFactory:458 - Finished creating instance of bean 'org.springframework.context.annotation.internalRequiredAnnotationProcessor'
2015-06-16 12:09:10 DEBUG DefaultListableBeanFactory:217 - Creating shared instance of singleton bean 'org.springframework.context.annotation.internalCommonAnnotationProcessor'
2015-06-16 12:09:10 DEBUG DefaultListableBeanFactory:430 - Creating instance of bean 'org.springframework.context.annotation.internalCommonAnnotationProcessor'
2015-06-16 12:09:10 DEBUG DefaultListableBeanFactory:504 - Eagerly caching bean 'org.springframework.context.annotation.internalCommonAnnotationProcessor' to allow for resolving potential circular references
2015-06-16 12:09:10 DEBUG DefaultListableBeanFactory:458 - Finished creating instance of bean 'org.springframework.context.annotation.internalCommonAnnotationProcessor'
2015-06-16 12:09:10 DEBUG DefaultListableBeanFactory:217 - Creating shared instance of singleton bean 'org.springframework.context.annotation.ConfigurationClassPostProcessor$ImportAwareBeanPostProcessor#0'
2015-06-16 12:09:10 DEBUG DefaultListableBeanFactory:430 - Creating instance of bean 'org.springframework.context.annotation.ConfigurationClassPostProcessor$ImportAwareBeanPostProcessor#0'
2015-06-16 12:09:10 DEBUG DefaultListableBeanFactory:504 - Eagerly caching bean 'org.springframework.context.annotation.ConfigurationClassPostProcessor$ImportAwareBeanPostProcessor#0' to allow for resolving potential circular references
2015-06-16 12:09:10 DEBUG DefaultListableBeanFactory:458 - Finished creating instance of bean 'org.springframework.context.annotation.ConfigurationClassPostProcessor$ImportAwareBeanPostProcessor#0'
2015-06-16 12:09:10 DEBUG GenericApplicationContext:794 - Unable to locate MessageSource with name 'messageSource': using default [org.springframework.context.support.DelegatingMessageSource@7f21f894]
2015-06-16 12:09:10 DEBUG GenericApplicationContext:818 - Unable to locate ApplicationEventMulticaster with name 'applicationEventMulticaster': using default [org.springframework.context.event.SimpleApplicationEventMulticaster@1604ac73]
2015-06-16 12:09:10 INFO  DefaultListableBeanFactory:557 - Pre-instantiating singletons in org.springframework.beans.factory.support.DefaultListableBeanFactory@9ad6d84: defining beans [org.springframework.context.annotation.internalConfigurationAnnotationProcessor,org.springframework.context.annotation.internalAutowiredAnnotationProcessor,org.springframework.context.annotation.internalRequiredAnnotationProcessor,org.springframework.context.annotation.internalCommonAnnotationProcessor,dataSource,dbUnitDatabaseConfig,dbUnitDatabaseConnection,authorService,commentService,newsService,tagService,hiberNewsDao,newsDao,authorDao,commentDao,tagDao,newsMapper,tagMapper,authorMapper,commentMapper,org.springframework.context.annotation.ConfigurationClassPostProcessor$ImportAwareBeanPostProcessor#0]; root of factory hierarchy
2015-06-16 12:09:10 DEBUG DefaultListableBeanFactory:245 - Returning cached instance of singleton bean 'org.springframework.context.annotation.internalConfigurationAnnotationProcessor'
2015-06-16 12:09:10 DEBUG DefaultListableBeanFactory:245 - Returning cached instance of singleton bean 'org.springframework.context.annotation.internalAutowiredAnnotationProcessor'
2015-06-16 12:09:10 DEBUG DefaultListableBeanFactory:245 - Returning cached instance of singleton bean 'org.springframework.context.annotation.internalRequiredAnnotationProcessor'
2015-06-16 12:09:10 DEBUG DefaultListableBeanFactory:245 - Returning cached instance of singleton bean 'org.springframework.context.annotation.internalCommonAnnotationProcessor'
2015-06-16 12:09:10 DEBUG DefaultListableBeanFactory:217 - Creating shared instance of singleton bean 'dataSource'
2015-06-16 12:09:10 DEBUG DefaultListableBeanFactory:430 - Creating instance of bean 'dataSource'
2015-06-16 12:09:10 DEBUG DefaultListableBeanFactory:504 - Eagerly caching bean 'dataSource' to allow for resolving potential circular references
2015-06-16 12:09:11 DEBUG StandardEnvironment:114 - Initializing new StandardEnvironment
2015-06-16 12:09:11 DEBUG StandardEnvironment:103 - Adding [systemProperties] PropertySource with lowest search precedence
2015-06-16 12:09:11 DEBUG StandardEnvironment:103 - Adding [systemEnvironment] PropertySource with lowest search precedence
2015-06-16 12:09:11 DEBUG StandardEnvironment:120 - Initialized StandardEnvironment with PropertySources [systemProperties,systemEnvironment]
2015-06-16 12:09:11 DEBUG StandardEnvironment:114 - Initializing new StandardEnvironment
2015-06-16 12:09:11 DEBUG StandardEnvironment:103 - Adding [systemProperties] PropertySource with lowest search precedence
2015-06-16 12:09:11 DEBUG StandardEnvironment:103 - Adding [systemEnvironment] PropertySource with lowest search precedence
