2015-06-16 12:09:11 DEBUG StandardEnvironment:120 - Initialized StandardEnvironment with PropertySources [systemProperties,systemEnvironment]
2015-06-16 12:09:11 DEBUG StandardEnvironment:114 - Initializing new StandardEnvironment
2015-06-16 12:09:11 DEBUG StandardEnvironment:103 - Adding [systemProperties] PropertySource with lowest search precedence
2015-06-16 12:09:11 DEBUG StandardEnvironment:103 - Adding [systemEnvironment] PropertySource with lowest search precedence
2015-06-16 12:09:11 DEBUG StandardEnvironment:120 - Initialized StandardEnvironment with PropertySources [systemProperties,systemEnvironment]
2015-06-16 12:09:11 DEBUG StandardEnvironment:114 - Initializing new StandardEnvironment
2015-06-16 12:09:11 DEBUG StandardEnvironment:103 - Adding [systemProperties] PropertySource with lowest search precedence
2015-06-16 12:09:11 DEBUG StandardEnvironment:103 - Adding [systemEnvironment] PropertySource with lowest search precedence
2015-06-16 12:09:11 DEBUG StandardEnvironment:120 - Initialized StandardEnvironment with PropertySources [systemProperties,systemEnvironment]
2015-06-16 12:09:11 DEBUG StandardEnvironment:114 - Initializing new StandardEnvironment
2015-06-16 12:09:11 DEBUG StandardEnvironment:103 - Adding [systemProperties] PropertySource with lowest search precedence
2015-06-16 12:09:11 DEBUG StandardEnvironment:103 - Adding [systemEnvironment] PropertySource with lowest search precedence
2015-06-16 12:09:11 DEBUG StandardEnvironment:120 - Initialized StandardEnvironment with PropertySources [systemProperties,systemEnvironment]
2015-06-16 12:09:11 DEBUG DefaultListableBeanFactory:458 - Finished creating instance of bean 'dataSource'
2015-06-16 12:09:11 DEBUG DefaultListableBeanFactory:217 - Creating shared instance of singleton bean 'dbUnitDatabaseConfig'
2015-06-16 12:09:11 DEBUG DefaultListableBeanFactory:430 - Creating instance of bean 'dbUnitDatabaseConfig'
2015-06-16 12:09:11 DEBUG DefaultListableBeanFactory:504 - Eagerly caching bean 'dbUnitDatabaseConfig' to allow for resolving potential circular references
2015-06-16 12:09:11 DEBUG DefaultListableBeanFactory:430 - Creating instance of bean 'org.dbunit.ext.oracle.OracleDataTypeFactory#656254c5'
2015-06-16 12:09:11 DEBUG DefaultListableBeanFactory:458 - Finished creating instance of bean 'org.dbunit.ext.oracle.OracleDataTypeFactory#656254c5'
2015-06-16 12:09:11 DEBUG StandardEnvironment:114 - Initializing new StandardEnvironment
2015-06-16 12:09:11 DEBUG StandardEnvironment:103 - Adding [systemProperties] PropertySource with lowest search precedence
2015-06-16 12:09:11 DEBUG StandardEnvironment:103 - Adding [systemEnvironment] PropertySource with lowest search precedence
2015-06-16 12:09:11 DEBUG StandardEnvironment:120 - Initialized StandardEnvironment with PropertySources [systemProperties,systemEnvironment]
2015-06-16 12:09:11 DEBUG StandardEnvironment:114 - Initializing new StandardEnvironment
2015-06-16 12:09:11 DEBUG StandardEnvironment:103 - Adding [systemProperties] PropertySource with lowest search precedence
2015-06-16 12:09:11 DEBUG StandardEnvironment:103 - Adding [systemEnvironment] PropertySource with lowest search precedence
2015-06-16 12:09:11 DEBUG StandardEnvironment:120 - Initialized StandardEnvironment with PropertySources [systemProperties,systemEnvironment]
2015-06-16 12:09:11 DEBUG StandardEnvironment:114 - Initializing new StandardEnvironment
2015-06-16 12:09:11 DEBUG StandardEnvironment:103 - Adding [systemProperties] PropertySource with lowest search precedence
2015-06-16 12:09:11 DEBUG StandardEnvironment:103 - Adding [systemEnvironment] PropertySource with lowest search precedence
2015-06-16 12:09:11 DEBUG StandardEnvironment:120 - Initialized StandardEnvironment with PropertySources [systemProperties,systemEnvironment]
2015-06-16 12:09:11 DEBUG StandardEnvironment:114 - Initializing new StandardEnvironment
2015-06-16 12:09:11 DEBUG StandardEnvironment:103 - Adding [systemProperties] PropertySource with lowest search precedence
2015-06-16 12:09:11 DEBUG StandardEnvironment:103 - Adding [systemEnvironment] PropertySource with lowest search precedence
2015-06-16 12:09:11 DEBUG StandardEnvironment:120 - Initialized StandardEnvironment with PropertySources [systemProperties,systemEnvironment]
2015-06-16 12:09:11 DEBUG StandardEnvironment:114 - Initializing new StandardEnvironment
2015-06-16 12:09:11 DEBUG StandardEnvironment:103 - Adding [systemProperties] PropertySource with lowest search precedence
2015-06-16 12:09:11 DEBUG StandardEnvironment:103 - Adding [systemEnvironment] PropertySource with lowest search precedence
2015-06-16 12:09:11 DEBUG StandardEnvironment:120 - Initialized StandardEnvironment with PropertySources [systemProperties,systemEnvironment]
2015-06-16 12:09:11 DEBUG DefaultListableBeanFactory:458 - Finished creating instance of bean 'dbUnitDatabaseConfig'
2015-06-16 12:09:11 DEBUG DefaultListableBeanFactory:217 - Creating shared instance of singleton bean 'dbUnitDatabaseConnection'
2015-06-16 12:09:11 DEBUG DefaultListableBeanFactory:430 - Creating instance of bean 'dbUnitDatabaseConnection'
2015-06-16 12:09:11 DEBUG DefaultListableBeanFactory:504 - Eagerly caching bean 'dbUnitDatabaseConnection' to allow for resolving potential circular references
2015-06-16 12:09:11 DEBUG DefaultListableBeanFactory:245 - Returning cached instance of singleton bean 'dbUnitDatabaseConfig'
2015-06-16 12:09:11 DEBUG DefaultListableBeanFactory:245 - Returning cached instance of singleton bean 'dataSource'
2015-06-16 12:09:11 DEBUG DefaultListableBeanFactory:458 - Finished creating instance of bean 'dbUnitDatabaseConnection'
2015-06-16 12:09:11 DEBUG DefaultListableBeanFactory:217 - Creating shared instance of singleton bean 'authorService'
2015-06-16 12:09:11 DEBUG DefaultListableBeanFactory:430 - Creating instance of bean 'authorService'
2015-06-16 12:09:11 DEBUG InjectionMetadata:60 - Found injected element on class [com.epam.news.service.impl.AuthorService]: AutowiredFieldElement for private com.epam.news.db.dao.AuthorDAO com.epam.news.service.impl.AuthorService.authorDao
2015-06-16 12:09:11 DEBUG DefaultListableBeanFactory:504 - Eagerly caching bean 'authorService' to allow for resolving potential circular references
2015-06-16 12:09:11 DEBUG InjectionMetadata:85 - Processing injected method of bean 'authorService': AutowiredFieldElement for private com.epam.news.db.dao.AuthorDAO com.epam.news.service.impl.AuthorService.authorDao
2015-06-16 12:09:11 DEBUG DefaultListableBeanFactory:217 - Creating shared instance of singleton bean 'authorDao'
2015-06-16 12:09:11 DEBUG DefaultListableBeanFactory:430 - Creating instance of bean 'authorDao'
2015-06-16 12:09:11 DEBUG InjectionMetadata:60 - Found injected element on class [com.epam.news.db.dao.jdbc.JDBCAuthorDAO]: AutowiredFieldElement for private javax.sql.DataSource com.epam.news.db.dao.jdbc.JDBCAuthorDAO.dataSource
2015-06-16 12:09:11 DEBUG InjectionMetadata:60 - Found injected element on class [com.epam.news.db.dao.jdbc.JDBCAuthorDAO]: AutowiredFieldElement for private com.epam.news.mapper.IMapper com.epam.news.db.dao.jdbc.JDBCAuthorDAO.authorMapper
2015-06-16 12:09:11 DEBUG DefaultListableBeanFactory:504 - Eagerly caching bean 'authorDao' to allow for resolving potential circular references
2015-06-16 12:09:11 DEBUG InjectionMetadata:85 - Processing injected method of bean 'authorDao': AutowiredFieldElement for private javax.sql.DataSource com.epam.news.db.dao.jdbc.JDBCAuthorDAO.dataSource
2015-06-16 12:09:11 DEBUG DefaultListableBeanFactory:245 - Returning cached instance of singleton bean 'dataSource'
2015-06-16 12:09:11 DEBUG AutowiredAnnotationBeanPostProcessor:424 - Autowiring by type from bean name 'authorDao' to bean named 'dataSource'
2015-06-16 12:09:11 DEBUG InjectionMetadata:85 - Processing injected method of bean 'authorDao': AutowiredFieldElement for private com.epam.news.mapper.IMapper com.epam.news.db.dao.jdbc.JDBCAuthorDAO.authorMapper
2015-06-16 12:09:11 DEBUG DefaultListableBeanFactory:217 - Creating shared instance of singleton bean 'newsMapper'
2015-06-16 12:09:11 DEBUG DefaultListableBeanFactory:430 - Creating instance of bean 'newsMapper'
2015-06-16 12:09:11 DEBUG DefaultListableBeanFactory:504 - Eagerly caching bean 'newsMapper' to allow for resolving potential circular references
2015-06-16 12:09:11 DEBUG DefaultListableBeanFactory:458 - Finished creating instance of bean 'newsMapper'
2015-06-16 12:09:11 DEBUG DefaultListableBeanFactory:217 - Creating shared instance of singleton bean 'tagMapper'
2015-06-16 12:09:11 DEBUG DefaultListableBeanFactory:430 - Creating instance of bean 'tagMapper'
2015-06-16 12:09:11 DEBUG DefaultListableBeanFactory:504 - Eagerly caching bean 'tagMapper' to allow for resolving potential circular references
2015-06-16 12:09:11 DEBUG DefaultListableBeanFactory:458 - Finished creating instance of bean 'tagMapper'
2015-06-16 12:09:11 DEBUG DefaultListableBeanFactory:217 - Creating shared instance of singleton bean 'authorMapper'
2015-06-16 12:09:11 DEBUG DefaultListableBeanFactory:430 - Creating instance of bean 'authorMapper'
2015-06-16 12:09:11 DEBUG DefaultListableBeanFactory:504 - Eagerly caching bean 'authorMapper' to allow for resolving potential circular references
2015-06-16 12:09:11 DEBUG DefaultListableBeanFactory:458 - Finished creating instance of bean 'authorMapper'
2015-06-16 12:09:11 DEBUG DefaultListableBeanFactory:217 - Creating shared instance of singleton bean 'commentMapper'
2015-06-16 12:09:11 DEBUG DefaultListableBeanFactory:430 - Creating instance of bean 'commentMapper'
2015-06-16 12:09:11 DEBUG DefaultListableBeanFactory:504 - Eagerly caching bean 'commentMapper' to allow for resolving potential circular references
2015-06-16 12:09:11 DEBUG DefaultListableBeanFactory:458 - Finished creating instance of bean 'commentMapper'
2015-06-16 12:09:11 DEBUG AutowiredAnnotationBeanPostProcessor:424 - Autowiring by type from bean name 'authorDao' to bean named 'authorMapper'
2015-06-16 12:09:11 DEBUG DefaultListableBeanFactory:458 - Finished creating instance of bean 'authorDao'
2015-06-16 12:09:11 DEBUG AutowiredAnnotationBeanPostProcessor:424 - Autowiring by type from bean name 'authorService' to bean named 'authorDao'
